…
    So far it's okay, but let's find out to see if there are ride length with less than equal to 0.

    
    ``` r
    # Check ride length value with less than equal to 0 minute
    check_ride_length_less_than_equal_0 <- tripdata_2023_clean %>%
      filter(ride_length <= 0)
    
    print(check_ride_length_less_than_equal_0)
    ```
    
    ```
    ## # A tibble: 1,269 × 11
    ##    rideable_type started_at          ended_at            start_station_name     
    ##    <chr>         <dttm>              <dttm>              <chr>                  
    ##  1 electric_bike 2023-01-17 08:31:49 2023-01-17 08:31:49 Marine Dr & Ainslie St 
    ##  2 electric_bike 2023-01-05 09:10:39 2023-01-05 09:10:39 Carpenter St & Huron St
    ##  3 electric_bike 2023-01-05 16:53:43 2023-01-05 16:53:43 Clark St & Lake St     
    ##  4 electric_bike 2023-01-08 14:27:26 2023-01-08 14:27:26 Dearborn St & Monroe St
    ##  5 electric_bike 2023-01-30 16:02:40 2023-01-30 16:02:40 Larrabee St & Kingsbur…
    ##  6 electric_bike 2023-01-28 19:53:31 2023-01-28 19:53:31 Wells St & Huron St    
    ##  7 electric_bike 2023-01-27 07:36:05 2023-01-27 07:36:05 Clark St & Elm St      
    ##  8 electric_bike 2023-01-27 10:14:40 2023-01-27 10:14:40 Clark St & Elm St      
    ##  9 electric_bike 2023-02-19 17:52:09 2023-02-19 17:52:09 Rush St & Cedar St     
    ## 10 classic_bike  2023-02-21 07:02:41 2023-02-21 07:02:41 Ellis Ave & 60th St    
    ## # ℹ 1,259 more rows
    ## # ℹ 7 more variables: end_station_name <chr>, start_lat <dbl>, start_lng <dbl>,
    ## #   end_lat <dbl>, end_lng <dbl>, member_casual <chr>, ride_length <drtn>
    ```
…
